<svg xmlns="http://www.w3.org/2000/svg" viewBox="0 0 133 47" width="115" height="41">
	<style>
		tspan { white-space:pre }
	</style>
	<path fill="#1d2327" aria-label="50"  d="M38.68 18.69L35.19 18.69L35.97 10.27L51.62 10.27L51.62 4.6L30.25 4.6L28.38 24.41L37.17 24.41C44.71 24.41 46.94 26.6 46.94 30.08C46.94 33.51 44.08 35.64 39.25 35.64C35.14 35.64 31.19 34.24 28.54 32.06L25.68 37.31C29 39.96 34.2 41.52 39.35 41.52C49.13 41.52 53.76 36.22 53.76 29.82C53.76 23.37 49.44 18.69 38.68 18.69ZM72.84 41.52C81.52 41.52 88.08 34.76 88.08 22.8C88.08 10.84 81.52 4.08 72.84 4.08C64.21 4.08 57.66 10.84 57.66 22.8C57.66 34.76 64.21 41.52 72.84 41.52ZM72.84 35.64C67.9 35.64 64.47 31.59 64.47 22.8C64.47 14.01 67.9 9.96 72.84 9.96C77.83 9.96 81.26 14.01 81.26 22.8C81.26 31.59 77.83 35.64 72.84 35.64Z" />
	<path fill="#1d2327" aria-label="R$"  d="M13.56 8.47C13.56 6.6 12.2 5.5 9.81 5.5L6.03 5.5L3.93 16L5.04 16L5.7 12.67L8.68 12.67C8.87 12.67 9.06 12.67 9.22 12.66L11.12 16L12.31 16L10.34 12.49C12.36 12.03 13.56 10.63 13.56 8.47ZM8.71 11.71L5.88 11.71L6.95 6.46L9.73 6.46C11.47 6.46 12.45 7.2 12.45 8.57C12.45 10.64 11.08 11.71 8.71 11.71ZM22.56 7.21L23.02 6.31C22.3 5.8 21.28 5.49 20.2 5.43L20.55 3.7L19.81 3.7L19.47 5.41C17.19 5.52 15.57 6.67 15.57 8.57C15.57 10.24 16.95 10.75 18.31 11.17L17.53 15.13C16.34 15.04 15.19 14.56 14.56 13.88L14.02 14.76C14.65 15.45 15.96 15.97 17.34 16.07L16.99 17.8L17.73 17.8L18.07 16.09C20.45 16.02 22.13 14.89 22.13 12.93C22.13 11.28 20.64 10.79 19.21 10.38L20.01 6.37C20.98 6.42 21.87 6.71 22.56 7.21ZM16.65 8.47C16.65 7.27 17.68 6.49 19.27 6.37L18.52 10.16C17.49 9.84 16.65 9.43 16.65 8.47ZM21.03 13.07C21.03 14.32 19.92 15.05 18.27 15.13L19.02 11.37C20.1 11.7 21.03 12.09 21.03 13.07Z" />
	<path fill="#1d2327" aria-label="/mês"  d="M85.52 42.5L86.55 42.5L94.29 28.37L93.25 28.37ZM102.93 33.05C101.55 33.05 100.39 33.58 99.6 34.63C99.25 33.62 98.36 33.05 97.02 33.05C95.82 33.05 94.78 33.45 94.03 34.37L94.29 33.11L93.27 33.11L91.71 41L92.78 41L93.61 36.77C93.99 34.94 95.1 34.01 96.7 34.01C98.03 34.01 98.66 34.66 98.66 35.78C98.66 36.01 98.63 36.24 98.58 36.5L97.68 41L98.75 41L99.61 36.65C99.97 34.88 101.1 34.01 102.67 34.01C103.98 34.01 104.63 34.66 104.63 35.77C104.63 35.99 104.61 36.23 104.55 36.5L103.65 41L104.72 41L105.61 36.52C105.67 36.19 105.72 35.87 105.72 35.59C105.72 33.99 104.72 33.05 102.93 33.05ZM112.6 30.66L113.95 31.91L114.91 31.91L113.19 30.05L112.11 30.05L109.97 31.91L110.98 31.91ZM115.28 37.35C115.34 37.05 115.38 36.73 115.38 36.4C115.38 34.3 114.03 33.05 111.94 33.05C109.42 33.05 107.58 35.03 107.58 37.72C107.58 39.78 108.97 41.08 111.25 41.08C112.48 41.08 113.67 40.64 114.41 39.91L113.92 39.14C113.34 39.76 112.39 40.13 111.34 40.13C109.53 40.13 108.63 39.24 108.63 37.67C108.63 37.56 108.63 37.46 108.64 37.35ZM111.91 33.95C113.38 33.95 114.39 34.77 114.39 36.27C114.39 36.37 114.39 36.45 114.38 36.56L108.75 36.56C109.14 34.98 110.33 33.95 111.91 33.95ZM119.01 41.08C121.11 41.08 122.5 40.17 122.5 38.62C122.5 35.99 118.03 37.23 118.03 35.41C118.03 34.55 118.86 33.97 120.31 33.97C121.13 33.97 122.01 34.17 122.63 34.64L123.07 33.78C122.47 33.34 121.41 33.05 120.41 33.05C118.33 33.05 116.98 34.01 116.98 35.51C116.98 38.18 121.45 36.95 121.45 38.73C121.45 39.62 120.63 40.15 119.11 40.15C118.03 40.15 116.98 39.8 116.38 39.27L115.88 40.12C116.49 40.67 117.72 41.08 119.01 41.08Z" />
</svg>